{
  "loss": "categorical_crossentropy",
  "metrics": [
    "categorical_accuracy",
    "top_k_categorical_accuracy"
  ],
  "dataset": "/g100/home/userinternal/fficarel/src/aml2022/dubai/dataset/original",
  "input": "dense",
  "imgsize": [
    512,
    512
  ],
  "batch": 8,
  "validation": 15.0,
  "epochs": 30,
  "optimizer": "rmsprop",
  "augment": "5",
  "out": "models/unet-002"
}