{
  "dataset": "dataset/split",
  "imgsize": [
    512,
    512
  ],
  "batch": 8,
  "epochs": 50,
  "train_steps": 7,
  "val_steps": 5,
  "initial_lr": 0.0001,
  "es_delta": 0.001,
  "es_patience": 10,
  "out": "models/000-inception"
}